{
  "apps" : [{
    "name": "Web Application",
    "script": "./index.js",
    "args": "-p demo"
  }, {
    "name": "full-update-exchange-rates",
    "script": "./workers/full-update-exchange-rates/index.js",
    "args": "-p demo"
  }, {
    "name": "update-exchange-rates",
    "script": "./workers/update-exchange-rates/index.js",
    "args": "-p demo"
  }, {
    "name": "update-bondora-auctions",
    "script": "./workers/update-bondora-auctions/index.js",
    "args": "-p demo"
  }, {
    "name": "update-bondora-balance",
    "script": "./workers/update-bondora-balance/index.js",
    "args": "-p demo"
  }, {
      "name": "update-bondora-investments",
      "script": "./workers/update-bondora-investments/index.js",
      "args": "-p demo"
  }, {
    "name": "full-update-bondora-loandataset",
    "script": "./workers/full-update-bondora-loandataset/index.js",
    "args": "-p demo"
  }, {
    "name": "update-bondora-loandataset",
    "script": "./workers/update-bondora-loandataset/index.js",
    "args": "-p demo"
  }, {
    "name": "full-update-bondora-publicdataset",
    "script": "./workers/full-update-bondora-publicdataset/index.js",
    "args": "-p demo"
  }, {
    "name": "update-bondora-publicdataset",
    "script": "./workers/update-bondora-publicdataset/index.js",
    "args": "-p demo"
  },{
    "name": "Scheduler",
    "script": "./scheduler/index.js",
    "args": "-p demo"
  }]
}
